{"count":20,"next":"http://localhost:8000/rest/resource/?format=json&limit=10&offset=10","previous":null,"results":[{"url":"http://localhost:8000/rest/resource/1/?format=json","uri":"http://jars/Resource/1","name":"A Retrospective Study of the Prevalence and Classification of Intestinal Neoplasia in Zebrafish (Danio Rerio)","public":true,"content":[]},{"url":"http://localhost:8000/rest/resource/2/?format=json","uri":"http://jars/Resource/2","name":"Automated Processing of Zebrafish Imaging Data: A Survey","public":true,"content":[]},{"url":"http://localhost:8000/rest/resource/3/?format=json","uri":"http://jars/Resource/3","name":"Translating Discovery in Zebrafish Pancreatic Development to Human Pancreatic Cancer: Biomarkers, Targets, Pathogenesis, and Therapeutics","public":true,"content":[]},{"url":"http://localhost:8000/rest/resource/4/?format=json","uri":"http://jars/Resource/4","name":"In vivo assessment of the permeability of the blood-brain barrier and blood-retinal barrier to fluorescent indoline derivatives in zebrafish","public":true,"content":[{"id":1,"content_resource":{"url":"http://localhost:8000/rest/resource/5/?format=json","id":5,"uri":"http://jars/Resource/5","name":"Watanabe et al. - 2012 - In vivo assessment of the permeability of the bloo.pdf","public":true},"content_type":"application/pdf","content_encoding":null}]},{"url":"http://localhost:8000/rest/resource/6/?format=json","uri":"http://jars/Resource/6","name":"Alcohol-Induced Morphological Deficits in the Development of Octavolateral Organs of the Zebrafish (Danio rerio)","public":true,"content":[]},{"url":"http://localhost:8000/rest/resource/7/?format=json","uri":"http://jars/Resource/7","name":"Towards a Comprehensive Catalog of Zebrafish Behavior 1.0 and Beyond","public":true,"content":[]},{"url":"http://localhost:8000/rest/resource/8/?format=json","uri":"http://jars/Resource/8","name":"Culturable Gut Microbiota Diversity in Zebrafish","public":true,"content":[]},{"url":"http://localhost:8000/rest/resource/9/?format=json","uri":"http://jars/Resource/9","name":"Diet-induced obesity in zebrafish shares common pathophysiological pathways with mammalian obesity","public":true,"content":[{"id":2,"content_resource":{"url":"http://localhost:8000/rest/resource/10/?format=json","id":10,"uri":"http://jars/Resource/10","name":"Oka et al. - 2010 - Diet-induced obesity in zebrafish shares common pa.pdf","public":true},"content_type":"application/pdf","content_encoding":null}]},{"url":"http://localhost:8000/rest/resource/11/?format=json","uri":"http://jars/Resource/11","name":"Comparison of the Exomes of Common Carp (Cyprinus carpio) and Zebrafish (Danio rerio)","public":true,"content":[]},{"url":"http://localhost:8000/rest/resource/12/?format=json","uri":"http://jars/Resource/12","name":"Host-Pathogen Interactions Made Transparent with the Zebrafish Model","public":true,"content":[{"id":3,"content_resource":{"url":"http://localhost:8000/rest/resource/13/?format=json","id":13,"uri":"http://jars/Resource/13","name":"Meijer and Spaink - 2011 - Host-Pathogen Interactions Made Transparent with t.pdf","public":true},"content_type":"application/pdf","content_encoding":null}]}]}
